0-1:24.2.1(170415212506S)(00164.094*m3)
!70D7
/XMX5LGBBLB2410049899

1-3:0.2.8(50)
0-0:1.0.0(170415212918S)
0-0:96.1.1(4530303335303033373832363030353136)
1-0:1.8.1(000119.195*kWh)
1-0:1.8.2(000123.032*kWh)
1-0:2.8.1(000000.000*kWh)
1-0:2.8.2(000000.000*kWh)
0-0:96.14.0(0001)
1-0:1.7.0(00.276*kW)
1-0:2.7.0(00.000*kW)
0-0:96.7.21(00002)
0-0:96.7.9(00000)
1-0:99.97.0(0)(0-0:96.7.19)
1-0:32.32.0(00000)
1-0:32.36.0(00000)
0-0:96.13.0()
1-0:32.7.0(0235.0*V)
0-1:96.1.0(4730303339303031363135343737383136)
1-0:31.7.0(1.24*A)
1-0:21.7.0(00.276*kW)
1-0:22.7.0(00.000*kW)
0-1:24.1.0(003)
0-1:96.1.0(4730303339303031363135343737383136)
0-1:24.2.1(170415212506S)(00164.094*m3)
!BEDC
/XMX5LGBBLB2410049899

1-3:0.2.8(50)
0-0:1.0.0(170415212919S)
0-0:96.1.1(4530303335303033373832363030353136)
1-0:1.8.1(000119.195*kWh)
1-0:1.8.2(000123.032*kWh)
1-0:2.8.1(000000.000*kWh)
1-0:2.8.2(000000.000*kWh)
0-0:96.14.0(0001)
1-0:1.7.0(00.276*kW)
1-0:2.7.0(00.000*kW)
0-0:96.7.21(00002)
0-0:96.7.9(00000)
1-0:99.97.0(0)(0-0:96.7.19)
1-0:32.32.0(00000)
1-0:32.36.0(00000)
0-0:96.13.0()
1-0:32.7.0(0235.0*V)
0-1:96.1.0(4730303339303031363135343737383136)
1-0:31.7.0(1.24*A)
1-0:21.7.0(00.276*kW)
1-0:22.7.0(00.000*kW)
0-1:24.1.0(003)
0-1:96.1.0(4730303339303031363135343737383136)
0-1:24.2.1(170415212506S)(00164.094*m3)
!9544
/XMX5LGBBLB2410049899

1-3:0.2.8(50)
0-0:1.0.0(170415212920S)
0-0:96.1.1(4530303335303033373832363030353136)
1-0:1.8.1(000119.195*kWh)
1-0:1.8.2(000123.032*kWh)
1-0:2.8.1(000000.000*kWh)
1-0:2.8.2(000000.000*kWh)
0-0:96.14.0(0001)
1-0:1.7.0(00.276*kW)
1-0:2.7.0(00.000*kW)
0-0:96.7.21(00002)
0-0:96.7.9(00000)
1-0:99.97.0(0)(0-0:96.7.19)
1-0:32.32.0(00000)
1-0:32.36.0(00000)
0-0:96.13.0()
1-0:32.7.0(0235.0*V)
0-1:96.1.0(4730303339303031363135343737383136)
1-0:31.7.0(1.24*A)
1-0:21.7.0(00.276*kW)
1-0:22.7.0(00.000*kW)
0-1:24.1.0(003)
0-1:96.1.0(4730303339303031363135343737383136)
0-1:24.2.1(170415212506S)(00164.094*m3)
!1C62
/XMX5LGBBLB2410049899

1-3:0.2.8(50)
0-0:1.0.0(180415212921S)
0-0:96.1.1(4530303335303033373832363030353136)
1-0:1.8.1(000119.195*kWh)
1-0:1.8.2(000123.032*kWh)
1-0:2.8.1(000000.000*kWh)
1-0:2.8.2(000000.000*kWh)
0-0:96.14.0(0001)
1-0:1.7.0(00.276*kW)
1-0:2.7.0(00.000*kW)
0-0:96.7.21(00002)
0-0:96.7.9(00000)
1-0:99.97.0(0)(0-0:96.7.19)
1-0:32.32.0(00000)
1-0:32.36.0(00000)
0-0:96.13.0()
1-0:32.7.0(0235.0*V)
0-1:96.1.0(4730303339303031363135343737383136)
1-0:31.7.0(1.24*A)
1-0:21.7.0(00.276*kW)
1-0:22.7.0(00.000*kW)
0-1:24.1.0(003)
0-1:96.1.0(4730303339303031363135343737383136)
0-1:24.2.1(180415212506S)(00164.094*m3)
!37FA
/XMX5LGBBLB2410049899

1-3:0.2.8(50)
0-0:1.0.0(170415212922S)
0-0:96.1.1(4530303335303033373832363030353136)
1-0:1.8.1(000119.195*kWh)
1-0:1.8.2(000123.032*kWh)
1-0:2.8.1(000000.000*kWh)
1-0:2.8.2(000000.000*kWh)
0-0:96.14.0(0001)
1-0:1.7.0(00.276*kW)
1-0:2.7.0(00.000*kW)
0-0:96.7.21(00002)
0-0:96.7.9(00000)
1-0:99.97.0(0)(0-0:96.7.19)
1-0:32.32.0(00000)
1-0:32.36.0(00000)
0-0:96.13.0()
1-0:32.7.0(0235.0*V)
0-1:96.1.0(4730303339303031363135343737383136)
1-0:31.7.0(1.24*A)
1-0:21.7.0(00.276*kW)
1-0:22.7.0(00.000*kW)
0-1:24.1.0(003)
0-1:96.1.0(4730303339303031363135343737383136)
0-1:24.2.1(170415212506S)(00164.094*m3)
!4B52
/XMX5LGBBLB2410049899

1-3:0.2.8(50)
0-0:1.0.0(170415212923S)
0-0:96.1.1(4530303335303033373832363030353136)
1-0:1.8.1(000119.195*kWh)
1-0:1.8.2(000123.032*kWh)
1-0:2.8.1(000000.000*kWh)
1-0:2.8.2(000000.000*kWh)
0-0:96.14.0(0001)
1-0:1.7.0(00.276*kW)
1-0:2.7.0(00.000*kW)
0-0:96.7.21(00002)
0-0:96.7.9(00000)
1-0:99.97.0(0)(0-0:96.7.19)
1-0:32.32.0(00000)
1-0:32.36.0(00000)
0-0:96.13.0()
1-0:32.7.0(0235.0*V)
0-1:96.1.0(4730303339303031363135343737383136)
1-0:31.7.0(1.24*A)
1-0:21.7.0(00.276*kW)
1-0:22.7.0(00.000*kW)
0-1:24.1.0(003)
0-1:96.1.0(4730303339303031363135343737383136)
0-1:24.2.1(170415212506S)(00164.094*m3)
!60CA
/XMX5LGBBLB2410049899

1-3:0.2.8(50)
0-0:1.0.0(170415212924S)
0-0:96.1.1(4530303335303033373832363030353136)
1-0:1.8.1(000119.195*kWh)
1-0:1.8.2(000123.032*kWh)
1-0:2.8.1(000000.000*kWh)
1-0:2.8.2(000000.000*kWh)
0-0:96.14.0(0001)
1-0:1.7.0(00.276*kW)
1-0:2.7.0(00.000*kW)
0-0:96.7.21(00002)
0-0:96.7.9(00000)
1-0:99.97.0(0)(0-0:96.7.19)
1-0:32.32.0(00000)
1-0:32.36.0(00000)
0-0:96.13.0()
1-0:32.7.0(0235.0*V)
0-1:96.1.0(4730303339303031363135343737383136)
1-0:31.7.0(1.24*A)
1-0:21.7.0(00.276*kW)
1-0:22.7.0(00.000*kW)
0-1:24.1.0(003)
0-1:96.1.0(4730303339303031363135343737383136)
0-1:24.2.1(170415212506S)(00164.094*m3)
!B202
/XMX5LGBBLB2410049899

1-3:0.2.8(50)
0-0:1.0.0(170415212925S)
0-0:96.1.1(4530303335303033373832363030353136)
1-0:1.8.1(000119.195*kWh)
1-0:1.8.2(000123.032*kWh)
1-0:2.8.1(000000.000*kWh)

